{
  "project_info": {
    "project_number": "739009795315",
    "firebase_url": "https://android-ac58a.firebaseio.com",
    "project_id": "android-ac58a",
    "storage_bucket": "android-ac58a.appspot.com"
  },
  "client": [
    {
      "client_info": {
        "mobilesdk_app_id": "1:739009795315:android:183426606e735257",
        "android_client_info": {
          "package_name": "com.example.mszabi.bigproject"
        }
      },
      "oauth_client": [
        {
          "client_id": "739009795315-2i10no8u9cjslmnejf8lbctfsccbj9sv.apps.googleusercontent.com",
          "client_type": 3
        }
      ],
      "api_key": [
        {
          "current_key": "AIzaSyApi2QTS0FJIzVzs3SZzClQW4wwIPt6dVY"
        }
      ],
      "services": {
        "analytics_service": {
          "status": 1
        },
        "appinvite_service": {
          "status": 1,
          "other_platform_oauth_client": []
        },
        "ads_service": {
          "status": 2
        }
      }
    }
  ],
  "configuration_version": "1"
}